{
  "id": "b92e70ae-36ee-4ec7-910c-6be889564876",
  "timestamp": "2017-11-26T23:02:42.652Z",
  "lang": "en",
  "result": {
    "source": "agent",
    "resolvedQuery": "wutucall creates",
    "action": "wutucall.search",
    "actionIncomplete": false,
    "parameters": {
      "description": "creates",
      "wutucall-phrase": "What do you call"
    },
    "contexts": [
      {
        "name": "wutucall-search",
        "parameters": {
          "description.original": "creates",
          "description": "creates",
          "wutucall-phrase": "What do you call",
          "wutucall-phrase.original": "wutucall"
        },
        "lifespan": 5
      },
      {
        "name": "response-names",
        "parameters": {
          "names": [
            "Factory",
            "Builder",
            "Object Mother"
          ]
        },
        "lifespan": 2
      },
      {
        "name": "search-followup",
        "parameters": {
          "description.original": "creates",
          "description": "creates",
          "wutucall-phrase": "What do you call",
          "wutucall-phrase.original": "wutucall"
        },
        "lifespan": 2
      }
    ],
    "metadata": {
      "intentId": "854f3e93-a464-4f3f-9843-0ec71e614f92",
      "webhookUsed": "true",
      "webhookForSlotFillingUsed": "false",
      "webhookResponseTime": 1487,
      "intentName": "search"
    },
    "fulfillment": {
      "speech": "How about one of these?\nFactory, Builder, Object Mother.\nWhich one do you like the best?",
      "displayText": "How about one of these?\nFactory, Builder, Object Mother.\nWhich one do you like the best?",
      "messages": [
        {
          "type": 0,
          "speech": "How about one of these?\nFactory, Builder, Object Mother.\nWhich one do you like the best?"
        }
      ],
      "data": {}
    },
    "score": 1
  },
  "status": {
    "code": 200,
    "errorType": "success",
    "webhookTimedOut": false
  },
  "sessionId": "5840b8e2-5e29-4585-a758-077a6da39764"
}