{
  "id": "37dd4643-312d-4c62-b7e1-aa19f1622a6f",
  "timestamp": "2017-11-26T23:23:11.073Z",
  "lang": "en",
  "result": {
    "source": "agent",
    "resolvedQuery": "i like number 1",
    "speech": "",
    "action": "wutucall.thumbs-up",
    "actionIncomplete": false,
    "parameters": {
      "name": "",
      "number": 1
    },
    "contexts": [
      {
        "name": "wutucall-search",
        "parameters": {
          "name.original": "",
          "number": 1,
          "description.original": "creates",
          "name": "",
          "description": "creates",
          "wutucall-phrase": "What do you call",
          "number.original": "1",
          "wutucall-phrase.original": "wutucall"
        },
        "lifespan": 4
      },
      {
        "name": "response-names",
        "parameters": {
          "name.original": "",
          "number": 1,
          "names": [
            "Factory",
            "Builder",
            "Object Mother"
          ],
          "name": "",
          "number.original": "1"
        },
        "lifespan": 1
      },
      {
        "name": "search-followup",
        "parameters": {
          "name.original": "",
          "number": 1,
          "description.original": "creates",
          "name": "",
          "description": "creates",
          "wutucall-phrase": "What do you call",
          "number.original": "1",
          "wutucall-phrase.original": "wutucall"
        },
        "lifespan": 1
      }
    ],
    "metadata": {
      "intentId": "2171ff43-3880-48c9-b1fe-dcf7689d5cc9",
      "webhookUsed": "true",
      "webhookForSlotFillingUsed": "false",
      "intentName": "wutucall-thumbs-up"
    },
    "fulfillment": {
      "speech": "",
      "messages": [
        {
          "type": 0,
          "speech": ""
        }
      ]
    },
    "score": 1
  },
  "status": {
    "code": 200,
    "errorType": "success",
    "webhookTimedOut": false
  },
  "sessionId": "5840b8e2-5e29-4585-a758-077a6da39764"
}